
2013-06-27T14:49:0Z
ekonomi
Merkez Bankası'nın toplam rezervleri geçen hafta 1 milyar 199 milyon dolar azalarak 128 milyar 746 milyon dolardan 127 milyar 547 milyon dolara geriledi. Merkez Bankası'nın brüt döviz rezervleri, geçen hafta 932 milyon dolar azalarak, 21 Haziran itibariyle 107 milyar 641 milyon dolara geriledi. Brüt döviz rezervleri 14 Haziran'da 108 milyar 573 milyon dolar düzeyindeydi. Merkez Bankası'nın, 14 Haziran itibariyle 128 milyar 746 milyon dolar olan toplam rezervleri 21 Haziran'da 127 milyar 547 milyon dolara geriledi. Toplam rezervin 20 milyar 173 milyon dolarını oluşturan altın rezervleri bir önceki haftaya göre 267 milyon dolar azalarak 19 milyar 906 milyon dolara düştü. Merkez Bankası'nın döviz rezervleri önceki tarihler itibariyle şöyle gerçekleşti: Tarih Altın  Brüt Döviz Rezervleri Toplam Rezervler 30.12.2011 9,888 78,33 88,218 27.01.2012 10,095 76,327 86,422 24.02.2012 11,09 77,725 88,815 30.03.2012 11,198 80,149 91,347 27.04.2012 12,783 80,206 92,988 25.05.2012 13,05 78,595 91,645 29.06.2012 12,438 83,05 95,488 27.07.2012 14,712 84,324 99,036 31.08.2012 15,706 92,996 108,702 28.09.2012 17,289 94,8 112,089 24.10.2012 18,015 96,678 114,693 30.11.2012 18,2 100,166 118,366 07.12.2012 18,27 100,872 119,142 14.12.2012 18,27 102,316 120,586 21.12.2012 19,97 100,676 120,646 28.12.2012 19,97 100,32 120,29 04.01.2013 20,414 101,732 122,146 11.01.2013 20,414 101,214 121,628 18.01.2013 19,793 103,531 123,324 25.01.2013 19,793 103,551 123,344 01.02.2013 19,922 105,312 125,234 08.02.2013 19,922 105,529 125,451 15.02.2013 20,169 104,999 125,168 22.02.2013 20,169 104,437 124,606 01.03.2013 19,832 104,207 124,039 08.03.2013 19,832 104,163 123,995 15.03.2013 20,305 105,057 125,362 22.03.2013 20,305 104,987 125,292 29.03.2013 21,037 105,65 126,687 05.04.2013 20,963 106,109 127,072 12.04.2013 21,362 108,913 130,275 19.04.2013 21,362 110,467 131,829 26.04.2013 21,975 113,27 135,245 03.05.2013 20,197 113,284 133,481 10.05.2013 21,151 110,25 131,401 17.05.2013 21,151 109,076 130,227 24.05.2013 21,056 108,758 129,814 31.05.2013 20,076 108,773 128,849 07.06.2013 20.173 108.105 128.278 14.06.2013 20.173 108.573 128.746 21.06.2013 19.906 107.641 127.547 - İstanbul 9 58 21 0
